{
	"status": 1,
	"employees:": [{
		"id": "36",
		"name": "\u05e2\u05d5\u05d1\u05d3 2",
		"password": "4297f44b13955235245b2497399d7a93"
	}, {
		"id": "35",
		"name": "\u05e2\u05d5\u05d1\u05d3 1",
		"password": ""
	}, {
		"id": "34",
		"name": "\u05d9\u05d7\u05d9\u05d0 \u05d8\u05d1\u05d0\u05e9",
		"password": "e10adc3949ba59abbe56e057f20f883e"
	}]
}